<svg width="34" height="35" viewBox="0 0 34 35" fill="none" xmlns="http://www.w3.org/2000/svg">
<rect x="9.22168" y="8.74878" width="24" height="2" transform="rotate(45 9.22168 8.74878)" fill="white"/>
<rect x="10.6362" y="7.33453" width="24" height="1" transform="rotate(45 10.6362 7.33453)" fill="white"/>
<rect x="26.8994" y="10.8701" width="9.74331" height="4" transform="rotate(135 26.8994 10.8701)" fill="white"/>
<rect x="18.2598" y="19.5096" width="11.7818" height="4" transform="rotate(135 18.2598 19.5096)" fill="white"/>
</svg>
