<svg width="512" height="512" viewBox="0 0 512 512" fill="none" xmlns="http://www.w3.org/2000/svg">
<g clip-path="url(#clip0_8298_57846)">
<path d="M222.275 184.718L223.507 179.513L255.972 39.0724C223.557 39.0418 191.548 46.2825 162.302 60.2612C133.057 74.2398 107.319 94.6005 86.9844 119.844L217.461 182.199L222.275 184.718Z" fill="#4700E5"/>
<path d="M194.511 306.237H188.914L44.7793 305.789C52.2431 337.249 66.6127 366.655 86.8467 391.875C107.081 417.094 132.672 437.497 161.766 451.603L193.336 311.666L194.511 306.237Z" fill="#4700E5"/>
<path d="M179.119 238.678L175.816 234.48L86.2568 121.187C65.9769 146.56 51.6721 176.174 44.4044 207.832C37.1367 239.49 37.0928 272.379 44.2759 304.056L174.249 241.029L179.119 238.678Z" fill="#4700E5"/>
<path d="M256.923 336.296L253.564 340.438L164.005 452.387C193.092 466.091 224.866 473.146 257.02 473.039C289.174 472.933 320.9 465.668 349.897 451.772L260.337 340.326L256.923 336.296Z" fill="#4700E5"/>
<path d="M255.971 0C205.332 1.21024e-06 155.829 15.0172 113.724 43.1524C71.6193 71.2876 38.8036 111.277 19.4271 158.063C0.0505816 204.85 -5.01636 256.331 4.86708 305.997C14.7505 355.663 39.1404 401.283 74.9521 437.087C110.764 472.891 156.389 497.271 206.057 507.143C255.725 517.016 307.206 511.938 353.988 492.551C400.77 473.164 440.752 440.34 468.878 398.229C497.004 356.118 512.01 306.612 511.999 255.972C511.985 188.079 485.004 122.972 436.991 74.9691C388.978 26.9666 323.865 -1.62257e-06 255.971 0V0ZM255.971 480.206C211.622 480.206 168.269 467.055 131.393 442.416C94.5183 417.777 65.7777 382.756 48.8059 341.783C31.8341 300.809 27.3935 255.723 36.0457 212.226C44.6978 168.729 66.0541 128.774 97.4138 97.4144C128.774 66.0546 168.728 44.6984 212.225 36.0462C255.723 27.3941 300.809 31.8347 341.782 48.8064C382.756 65.7782 417.776 94.5189 442.415 131.394C467.055 168.269 480.206 211.623 480.206 255.972C480.213 285.421 474.418 314.583 463.152 341.791C451.886 369 435.369 393.723 414.545 414.546C393.722 435.37 369 451.886 341.791 463.153C314.582 474.419 285.42 480.214 255.971 480.206V480.206Z" fill="#4700E5"/>
<path d="M291.572 184.716L296.386 182.422L425.407 120.458C405.279 95.3095 379.798 74.9655 350.817 60.906C321.836 46.8465 290.085 39.4252 257.875 39.1824L290.34 179.119L291.572 184.716Z" fill="#4700E5"/>
<path d="M319.335 306.237L320.51 311.442L351.912 450.763C380.607 436.544 405.822 416.185 425.768 391.131C445.715 366.077 459.905 336.941 467.332 305.789L324.653 306.181L319.335 306.237Z" fill="#4700E5"/>
<path d="M426.974 122.362L338.087 234.311L334.784 238.51L339.598 240.86L467.892 303.272C474.927 271.971 474.905 239.496 467.828 208.204C460.75 176.913 446.795 147.589 426.974 122.362V122.362Z" fill="#4700E5"/>
</g>
<defs>
<clipPath id="clip0_8298_57846">
<rect width="512" height="512" fill="white"/>
</clipPath>
</defs>
</svg>
